Technical Productions in Psychology - Report on the course “Introduction to R for data analysis in Psychology”: proposal and construction
…
ufo |> 
  mutate(
    dur_horas = duration_seconds/3600
  ) |>
  filter(country_code == "US",
         shape == "cigar") |>
  group_by(state) |> 
  summarise(
    n = n(),
    M = mean(dur_horas)
  ) |> 
  arrange(desc(n))

# A tibble: 51 × 3
   state     n      M
   <chr> <int>  <dbl>
 1 CA      250 2.39  
 2 FL      146 1.74  
 3 TX      119 2.91  
 4 NY      109 2.63  
 5 WA       90 1.13  
 6 PA       88 2.95  
 7 OH       76 2.03  
 8 NC       72 2.42  
 9 IL       68 0.114 
10 OR       68 0.0798
# ℹ 41 more rows
…
# A tibble: 1 × 4
      a      b      c      d
  <dbl>  <dbl>  <dbl>  <dbl>
1 0.130 -0.106 -0.385 -0.732

Exercise

In the economics dataset, calculate the mean of the pce, pop, and psavert variables using the across function.

economics |> 
  print(n = 3)

# A tibble: 574 × 6
  date         pce    pop psavert uempmed unemploy
  <date>     <dbl>  <dbl>   <dbl>   <dbl>    <dbl>
1 1967-07-01  507. 198712    12.6     4.5     2944
2 1967-08-01  510. 198911    12.6     4.7     2945
3 1967-09-01  516. 199113    11.9     4.6     2958
# ℹ 571 more rows
…
